{
    "@class": "com.kony.gen.viz.model.component.KVizImage2",
    "DNDConfig": null,
    "__parentReadjusting__": false,
    "_base64_": null,
    "_height_": {
        "type": "string",
        "value": "80%"
    },
    "_left_": {
        "type": "string",
        "value": "10%"
    },
    "_margin_": [
        0,
        0,
        0,
        0
    ],
    "_padding_": [
        0,
        0,
        0,
        0
    ],
    "_skin_": "s029603a5121476283f3d33a40faed38",
    "_src_": "left_arrow.png",
    "_width_": {
        "type": "string",
        "value": "35%"
    },
    "canUpdateUI": true,
    "centery": {
        "type": "string",
        "value": "50%"
    },
    "containerweight": 100,
    "context": {
        "channel": "mobile",
        "formID": "TemplateHeader",
        "templateType": "forms",
        "topLevelBox": null
    },
    "id": "BackHdrNavImage",
    "imagescalemode": 1,
    "info": null,
    "invokedProperty": "src",
    "isvisible": true,
    "kuid": "b7f31f3592174844ba995c1977ab58e9",
    "name": "kony.ui.Image2",
    "parent": "BackHdrNavButton",
    "pf": "TemplateHeader",
    "srcType": 1,
    "wType": "Image",
    "widgetalignment": 5,
    "zindex": 1
}