{
  "background_image": "houston_sky.png",
  "bg_type": "image",
  "border_color": "000000ff",
  "border_style": "plain",
  "border_type": 0,
  "border_width": 0,
  "isDefaultSkin": false,
  "kuid": "s046e22c233347eb882998342feacb40",
  "wType": "FlexContainer"
}