{
  "android": {
    "font_size": 150,
    "isForked": false
  },
  "background_color": "ffffff00",
  "bg_type": "one",
  "border_color": "424242ff",
  "border_style": "plain",
  "border_type": 0,
  "border_width": 0,
  "desktopweb": {
    "font_size": 150,
    "isForked": false
  },
  "fontSizeInPx": false,
  "font_color": "8c8c8cff",
  "font_name": "Helvetica",
  "font_size": 150,
  "font_style": "normal",
  "font_weight": "normal",
  "ipad": {
    "font_size": 150,
    "isForked": false
  },
  "iphone": {
    "font_size": 150,
    "isForked": false
  },
  "isDefaultSkin": false,
  "kiosk": {
    "font_size": 150,
    "isForked": false
  },
  "kuid": "s51cba9e38b74cea9122071700c0eb87",
  "spaan": {
    "font_size": 150,
    "isForked": false
  },
  "spaandroidtablet": {
    "font_size": 150,
    "isForked": false
  },
  "spabb": {
    "font_size": 150,
    "isForked": false
  },
  "spaip": {
    "font_size": 150,
    "isForked": false
  },
  "spaipad": {
    "font_size": 150,
    "isForked": false
  },
  "spawindowstablet": {
    "font_size": 150,
    "isForked": false
  },
  "spawinphone8": {
    "font_size": 150,
    "isForked": false
  },
  "tabrcandroid": {
    "font_size": 150,
    "isForked": false
  },
  "wType": "Label",
  "watchos": {
    "font_size": 150,
    "isForked": false
  },
  "windows8": {
    "font_size": 150,
    "isForked": false
  },
  "winphone8": {
    "font_size": 150,
    "isForked": false
  }
}