{
  "background_color": "00000072",
  "bg_type": "one",
  "border_color": "000000ff",
  "border_style": "plain",
  "border_type": 0,
  "border_width": 0,
  "isDefaultSkin": false,
  "kuid": "s31d2f378ea145d39414581945382ef7",
  "wType": "FlexContainer"
}